Master-Thesis_updated/Python/FE_IV_2c23_4K/2c23_IV_Channel2Generator_nphi_Igen124p84.csv

"Record Length",100000,"Points",           0, 0.385906247
"Sample Interval",9.99999997e-007,s,9.99999997e-007, 0.387874997
"Trigger Point",0,"Samples",1.99999999e-006, 0.385156247
"Trigger Time",           0,s,2.99999999e-006, 0.385124997
"",,,3.99999999e-006, 0.386624997
,,,4.99999999e-006, 0.387124997
,,,5.99999998e-006, 0.386624997
,,,6.99999998e-006, 0.387062497
,,,7.99999998e-006, 0.387062497
,,,8.99999998e-006, 0.387374997
,,,9.99999997e-006, 0.383999997
,,,    1.1e-005, 0.386312497
,,,    1.2e-005, 0.386218747
,,,    1.3e-005, 0.386656247
,,,    1.4e-005, 0.387843747
,,,    1.5e-005, 0.384781247
,,,    1.6e-005, 0.386281247
,,,    1.7e-005, 0.388156247
,,,    1.8e-005, 0.387093747
,,,    1.9e-005, 0.385062497
,,,1.99999999e-005, 0.387531247
,,,2.09999999e-005, 0.387749997
,,,2.19999999e-005, 0.385906247
,,,2.29999999e-005, 0.386687497
,,,2.39999999e-005, 0.386656247
,,,2.49999999e-005, 0.388593747
,,,2.59999999e-005, 0.385499997
,,,2.69999999e-005, 0.389343747
,,,2.79999999e-005, 0.385906247
,,,2.89999999e-005, 0.385499997
,,,2.99999999e-005, 0.388624997
,,,3.09999999e-005, 0.386187497
,,,3.19999999e-005, 0.387499997
,,,3.29999999e-005, 0.388562497
,,,3.39999999e-005, 0.387843747
,,,3.49999999e-005, 0.388187497
,,,3.59999999e-005, 0.386249997
,,,3.69999999e-005, 0.386656247
,,,3.79999999e-005, 0.387468747
,,,3.89999999e-005, 0.387062497
,,,3.99999999e-005, 0.389312497
,,,4.09999999e-005, 0.385156247
,,,4.19999999e-005, 0.387781247
,,,4.29999999e-005, 0.388937497
,,,4.39999999e-005, 0.386281247
,,,4.49999999e-005, 0.389343747
,,,4.59999999e-005, 0.387843747
,,,4.69999999e-005, 0.388156247
,,,4.79999999e-005, 0.387468747
,,,4.89999999e-005, 0.387093747
,,,4.99999999e-005, 0.387374997
,,,5.09999999e-005, 0.389281247
,,,5.19999999e-005, 0.388999997
,,,5.29999999e-005, 0.388624997
,,,5.39999999e-005, 0.389687497
,,,5.49999999e-005, 0.388968747
,,,5.59999999e-005, 0.388562497
,,,5.69999999e-005, 0.387374997
,,,5.79999999e-005, 0.387874997
,,,5.89999999e-005, 0.389281247
,,,5.99999998e-005, 0.386687497
,,,6.09999998e-005, 0.389374997
,,,6.19999998e-005, 0.388906247
,,,6.29999998e-005, 0.389343747
,,,6.39999998e-005, 0.386312497
,,,6.49999998e-005, 0.387437497
,,,6.59999998e-005, 0.387749997
,,,6.69999998e-005, 0.388968747
,,,6.79999998e-005, 0.388968747
,,,6.89999998e-005, 0.387781247
,,,6.99999998e-005, 0.388562497
,,,7.09999998e-005, 0.388937497
,,,7.19999998e-005, 0.388187497
,,,7.29999998e-005, 0.387781247
,,,7.39999998e-005, 0.390468747
,,,7.49999998e-005, 0.388624997
,,,7.59999998e-005, 0.386999997
,,,7.69999998e-005, 0.387468747
,,,7.79999998e-005, 0.387406247
,,,7.89999998e-005, 0.388968747
,,,7.99999998e-005, 0.388124997
,,,8.09999998e-005, 0.388624997
,,,8.19999998e-005, 0.389312497
,,,8.29999998e-005, 0.387781247
,,,8.39999998e-005, 0.387437497
,,,8.49999998e-005, 0.391312497
,,,8.59999998e-005, 0.386624997
,,,8.69999998e-005, 0.387093747
,,,8.79999998e-005, 0.389312497
,,,8.89999998e-005, 0.391593747
,,,8.99999998e-005, 0.389343747
,,,9.09999998e-005, 0.387906247
,,,9.19999998e-005, 0.388499997
,,,9.29999998e-005, 0.388968747
,,,9.39999998e-005, 0.389687497
,,,9.49999998e-005, 0.390843747
,,,9.59999998e-005, 0.387843747
,,,9.69999998e-005, 0.390093747
,,,9.79999998e-005, 0.388156247
,,,9.89999998e-005, 0.389406247
,,,9.99999997e-005, 0.387781247
,,,    0.000101, 0.391624997
,,,    0.000102, 0.389718747
,,,    0.000103, 0.390124997
,,,    0.000104, 0.387031247
,,,    0.000105, 0.388593747
,,,    0.000106, 0.390468747
,,,    0.000107, 0.390499997
,,,    0.000108, 0.392406247
,,,    0.000109, 0.390843747
,,,     0.00011, 0.391249997
,,,    0.000111, 0.390843747
,,,    0.000112, 0.391999997
,,,    0.000113, 0.391249997
,,,    0.000114, 0.390874997
,,,    0.000115, 0.390093747
,,,    0.000116, 0.392749997
,,,    0.000117, 0.390124997
,,,    0.000118, 0.390468747
,,,    0.000119, 0.390062497
,,,     0.00012, 0.391593747
,,,    0.000121, 0.393187497
,,,    0.000122, 0.389312497
,,,    0.000123, 0.390468747
,,,    0.000124, 0.390499997
,,,    0.000125, 0.389343747
,,,    0.000126, 0.390093747
,,,    0.000127, 0.390468747
,,,    0.000128, 0.390124997
,,,    0.000129, 0.390124997
,,,     0.00013, 0.391593747
,,,    0.000131, 0.390843747
,,,    0.000132, 0.392031247
,,,    0.000133, 0.391593747
,,,    0.000134, 0.390531247
,,,    0.000135, 0.391624997
,,,    0.000136, 0.391218747
,,,    0.000137, 0.389312497
,,,    0.000138, 0.390468747
,,,    0.000139, 0.390499997
,,,     0.00014, 0.388531247
,,,    0.000141, 0.389406247
,,,    0.000142, 0.389687497
,,,    0.000143, 0.391624997
,,,    0.000144, 0.392749997
,,,    0.000145, 0.391999997
,,,    0.000146, 0.390812497
,,,    0.000147, 0.392781247
,,,    0.000148, 0.388874997
,,,    0.000149, 0.391281247
,,,     0.00015, 0.391624997
,,,    0.000151, 0.390437497
,,,    0.000152, 0.390906247
,,,    0.000153, 0.391562497
,,,    0.000154, 0.391624997
,,,    0.000155, 0.393499997
,,,    0.000156, 0.393156247
,,,    0.000157, 0.391593747
,,,    0.000158, 0.390499997
,,,    0.000159, 0.390874997
,,,     0.00016, 0.390031247
,,,    0.000161, 0.393187497
,,,    0.000162, 0.391999997
,,,    0.000163, 0.391218747
,,,    0.000164, 0.392781247
,,,    0.000165, 0.394249997
,,,    0.000166, 0.393124997
,,,    0.000167, 0.392062497
,,,    0.000168, 0.392374997
,,,    0.000169, 0.393906247
,,,     0.00017, 0.391593747
,,,    0.000171, 0.394312497
,,,    0.000172, 0.392437497
,,,    0.000173, 0.392374997
,,,    0.000174, 0.393156247
,,,    0.000175, 0.391249997
,,,    0.000176, 0.392374997
,,,    0.000177, 0.392749997
,,,    0.000178, 0.393937497
,,,    0.000179, 0.393187497
,,,     0.00018, 0.391156247
,,,    0.000181, 0.392781247
,,,    0.000182, 0.394656247
,,,    0.000183, 0.393531247
,,,    0.000184, 0.391999997
,,,    0.000185, 0.393499997
,,,    0.000186, 0.392749997
,,,    0.000187, 0.393187497
,,,    0.000188, 0.393124997
,,,    0.000189, 0.394249997
,,,     0.00019, 0.394312497
,,,    0.000191, 0.391218747
,,,    0.000192, 0.393187497
,,,    0.000193, 0.394656247
,,,    0.000194, 0.393906247
,,,    0.000195, 0.391249997
,,,    0.000196, 0.393906247
,,,    0.000197, 0.392406247
,,,    0.000198, 0.392749997
,,,0.000198999999, 0.392749997
,,,0.000199999999, 0.392374997
,,,0.000200999999, 0.392718747
,,,0.000201999999, 0.391593747
,,,0.000202999999, 0.393156247
,,,0.000203999999, 0.393531247
,,,0.000204999999, 0.393531247
,,,0.000205999999, 0.393468747
,,,0.000206999999, 0.394312497
,,,0.000207999999, 0.393124997
,,,0.000208999999, 0.393562497
,,,0.000209999999, 0.393874997
,,,0.000210999999, 0.394687497
,,,0.000211999999, 0.394312497
,,,0.000212999999, 0.393531247
,,,0.000213999999, 0.395062497
,,,0.000214999999, 0.395062497
,,,0.000215999999, 0.393531247
,,,0.000216999999, 0.394281247
,,,0.000217999999, 0.393468747
,,,0.000218999999, 0.393906247
,,,0.000219999999, 0.395406247
,,,0.000220999999, 0.394312497
,,,0.000221999999, 0.393531247
,,,0.000222999999, 0.395406247
,,,0.000223999999, 0.395843747
,,,0.000224999999, 0.392312497
,,,0.000225999999, 0.393531247
,,,0.000226999999, 0.395812497
,,,0.000227999999, 0.394656247
,,,0.000228999999, 0.396624997
,,,0.000229999999, 0.396187497
,,,0.000230999999, 0.396968747
,,,0.000231999999, 0.393843747
,,,0.000232999999, 0.395031247
,,,0.000233999999, 0.395031247
,,,0.000234999999, 0.396593747
,,,0.000235999999, 0.395062497
,,,0.000236999999, 0.395124997
,,,0.000237999999, 0.394656247
,,,0.000238999999, 0.396124997
,,,0.000239999999, 0.396249997
,,,0.000240999999, 0.393906247
,,,0.000241999999, 0.395749997
,,,0.000242999999, 0.395812497
,,,0.000243999999, 0.395374997
,,,0.000244999999, 0.397749997
,,,0.000245999999, 0.396562497
,,,0.000246999999, 0.394656247
,,,0.000247999999, 0.395437497
,,,0.000248999999, 0.394656247
,,,0.000249999999, 0.395468747
,,,0.000250999999, 0.397343747
,,,0.000251999999, 0.396156247
,,,0.000252999999, 0.395062497
,,,0.000253999999, 0.395406247
,,,0.000254999999, 0.395812497
,,,0.000255999999, 0.397343747
,,,0.000256999999, 0.395406247
,,,0.000257999999, 0.397718747
,,,0.000258999999, 0.395062497
,,,0.000259999999, 0.394718747
,,,0.000260999999, 0.395781247
,,,0.000261999999, 0.396937497
,,,0.000262999999, 0.396281247
,,,0.000263999999, 0.394968747
,,,0.000264999999, 0.397781247
,,,0.000265999999, 0.398031247
,,,0.000266999999, 0.396999997
,,,0.000267999999, 0.397593747
,,,0.000268999999, 0.396999997
,,,0.000269999999, 0.396218747
,,,0.000270999999, 0.395781247
,,,0.000271999999, 0.395843747
,,,0.000272999999, 0.395812497
,,,0.000273999999, 0.396937497
,,,0.000274999999, 0.394343747
,,,0.000275999999, 0.395406247
,,,0.000276999999, 0.397312497
,,,0.000277999999, 0.396218747
,,,0.000278999999, 0.394687497
,,,0.000279999999, 0.396906247
,,,0.000280999999, 0.395468747
,,,0.000281999999, 0.395468747
,,,0.000282999999, 0.396906247
,,,0.000283999999, 0.396906247
,,,0.000284999999, 0.398499997
,,,0.000285999999, 0.398093747
,,,0.000286999999, 0.398437497
,,,0.000287999999, 0.396593747
,,,0.000288999999, 0.396562497
,,,0.000289999999, 0.396249997
,,,0.000290999999, 0.399218747
,,,0.000291999999, 0.396937497
,,,0.000292999999, 0.398843747
,,,0.000293999999, 0.396593747
,,,0.000294999999, 0.396937497
,,,0.000295999999, 0.397312497
,,,0.000296999999, 0.396218747
,,,0.000297999999, 0.399249997
,,,0.000298999999, 0.396562497
,,,0.000299999999, 0.397718747
,,,0.000300999999, 0.397687497
,,,0.000301999999, 0.396218747
,,,0.000302999999, 0.396156247
,,,0.000303999999, 0.396968747
,,,0.000304999999, 0.399999997
,,,0.000305999999, 0.396937497
,,,0.000306999999, 0.397687497
,,,0.000307999999, 0.396249997
,,,0.000308999999, 0.396874997
,,,0.000309999999, 0.396249997
,,,0.000310999999, 0.397312497
,,,0.000311999999, 0.398093747
,,,0.000312999999, 0.398468747
,,,0.000313999999, 0.395843747
,,,0.000314999999, 0.396218747
,,,0.000315999999, 0.398468747
,,,0.000316999999, 0.400374997
,,,0.000317999999, 0.400031247
,,,0.000318999999, 0.398093747
,,,0.000319999999, 0.397656247
,,,0.000320999999, 0.396968747
,,,0.000321999999, 0.399218747
,,,0.000322999999, 0.398468747
,,,0.000323999999, 0.398468747
,,,0.000324999999, 0.398156247
,,,0.000325999999, 0.396562497
,,,0.000326999999, 0.398468747
,,,0.000327999999, 0.398062497
,,,0.000328999999, 0.398156247
,,,0.000329999999, 0.399249997
,,,0.000330999999, 0.401468747
,,,0.000331999999, 0.398124997
,,,0.000332999999, 0.399249997
,,,0.000333999999, 0.399249997
,,,0.000334999999, 0.399281247
,,,0.000335999999, 0.398406247
,,,0.000336999999, 0.398906247
,,,0.000337999999, 0.398843747
,,,0.000338999999, 0.399562497
,,,0.000339999999, 0.398124997
,,,0.000340999999, 0.397781247
,,,0.000341999999, 0.399187497
,,,0.000342999999, 0.398843747
,,,0.000343999999, 0.400031247
,,,0.000344999999, 0.398062497
,,,0.000345999999, 0.398437497
,,,0.000346999999, 0.399624997
,,,0.000347999999, 0.399187497
,,,0.000348999999, 0.398843747
,,,0.000349999999, 0.398531247
,,,0.000350999999, 0.397343747
,,,0.000351999999, 0.398468747
,,,0.000352999999, 0.399187497
,,,0.000353999999, 0.398874997
,,,0.000354999999, 0.400437497
,,,0.000355999999, 0.399593747
,,,0.000356999999, 0.400374997
,,,0.000357999999, 0.400374997
,,,0.000358999999, 0.398812497
,,,0.000359999999, 0.397374997
,,,0.000360999999, 0.401124997
,,,0.000361999999, 0.398874997
,,,0.000362999999, 0.401531247
,,,0.000363999999, 0.398874997
,,,0.000364999999, 0.401156247
,,,0.000365999999, 0.398468747
,,,0.000366999999, 0.399593747
,,,0.000367999999, 0.400437497
,,,0.000368999999, 0.401906247
,,,0.000369999999, 0.398499997
,,,0.000370999999, 0.399156247
,,,0.000371999999, 0.401187497
,,,0.000372999999, 0.401843747
,,,0.000373999999, 0.402749997
,,,0.000374999999, 0.401093747
,,,0.000375999999, 0.400062497
,,,0.000376999999, 0.399562497
,,,0.000377999999, 0.403031247
,,,0.000378999999, 0.400031247
,,,0.000379999999, 0.400343747
,,,0.000380999999, 0.400812497
,,,0.000381999999, 0.400749997
,,,0.000382999999, 0.398062497
,,,0.000383999999, 0.400718747
,,,0.000384999999, 0.401906247
,,,0.000385999999, 0.400812497
,,,0.000386999999, 0.401906247
,,,0.000387999999, 0.401531247
,,,0.000388999999, 0.399593747
,,,0.000389999999, 0.400812497
,,,0.000390999999, 0.401062497
,,,0.000391999999, 0.398906247
,,,0.000392999999, 0.399156247
,,,0.000393999999, 0.401937497
,,,0.000394999999, 0.399624997
,,,0.000395999999, 0.399999997
,,,0.000396999999, 0.398874997
,,,0.000397999999, 0.402312497
,,,0.000398999999, 0.402999997
,,,0.000399999999, 0.401156247
,,,0.000400999999, 0.401124997
,,,0.000401999999, 0.400406247
,,,0.000402999999, 0.402187497
,,,0.000403999999, 0.401562497
,,,0.000404999999, 0.400781247
,,,0.000405999999, 0.400749997
,,,0.000406999999, 0.401156247
,,,0.000407999999, 0.400718747
,,,0.000408999999, 0.404187497
,,,0.000409999999, 0.401906247
,,,0.000410999999, 0.401562497
,,,0.000411999999, 0.400374997
,,,0.000412999999, 0.400374997
,,,0.000413999999, 0.402249997
,,,0.000414999999, 0.398874997
,,,0.000415999999, 0.403437497
,,,0.000416999999, 0.400781247
,,,0.000417999999, 0.403031247
,,,0.000418999999, 0.401093747
,,,0.000419999999, 0.400437497
,,,0.000420999999, 0.402687497
,,,0.000421999999, 0.401499997
,,,0.000422999999, 0.403031247
,,,0.000423999999, 0.404593747
,,,0.000424999999, 0.404187497
,,,0.000425999999, 0.402343747
,,,0.000426999999, 0.401906247
,,,0.000427999999, 0.401874997
,,,0.000428999999, 0.403406247
,,,0.000429999999, 0.402718747
,,,0.000430999999, 0.402281247
,,,0.000431999999, 0.403031247
,,,0.000432999999, 0.402656247
,,,0.000433999999, 0.404593747
,,,0.000434999999, 0.401531247
,,,0.000435999999, 0.405687497
,,,0.000436999999, 0.405343747
,,,0.000437999999, 0.406531247
,,,0.000438999999, 0.403343747
,,,0.000439999999, 0.403874997
,,,0.000440999999, 0.401499997
,,,0.000441999999, 0.403437497
,,,0.000442999999, 0.406781247
,,,0.000443999999, 0.403843747
,,,0.000444999999, 0.401906247
,,,0.000445999999, 0.404968747
,,,0.000446999999, 0.402656247
,,,0.000447999999, 0.402999997
,,,0.000448999999, 0.403124997
,,,0.000449999999, 0.402249997
,,,0.000450999999, 0.404562497
,,,0.000451999999, 0.401906247
,,,0.000452999999, 0.402656247
,,,0.000453999999, 0.402281247
,,,0.000454999999, 0.403031247
,,,0.000455999999, 0.403031247
,,,0.000456999999, 0.403437497
,,,0.000457999999, 0.403812497
,,,0.000458999999, 0.403374997
,,,0.000459999999, 0.405343747
,,,0.000460999999, 0.403062497
,,,0.000461999999, 0.406468747
,,,0.000462999999, 0.404593747
,,,0.000463999999, 0.405687497
,,,0.000464999999, 0.403843747
,,,0.000465999999, 0.404937497
,,,0.000466999999, 0.407218747
,,,0.000467999999, 0.404999997
,,,0.000468999999, 0.404156247
,,,0.000469999999, 0.404656247
,,,0.000470999999, 0.403031247
,,,0.000471999999, 0.403062497
,,,0.000472999999, 0.406093747
,,,0.000473999999, 0.404937497
,,,0.000474999999, 0.406031247
,,,0.000475999999, 0.404218747
,,,0.000476999999, 0.404968747
,,,0.000477999999, 0.401156247
,,,0.000478999999, 0.403062497
,,,0.000479999999, 0.404937497
,,,0.000480999999, 0.403812497
,,,0.000481999999, 0.406093747
,,,0.000482999999, 0.406437497
,,,0.000483999999, 0.404249997
,,,0.000484999999, 0.404156247
,,,0.000485999999, 0.404968747
,,,0.000486999999, 0.405781247
,,,0.000487999999, 0.404531247
,,,0.000488999999, 0.406468747
,,,0.000489999999, 0.403812497
,,,0.000490999999, 0.406093747
,,,0.000491999999, 0.403874997
,,,0.000492999999, 0.408718747
,,,0.000493999999, 0.405718747
,,,0.000494999999, 0.405718747
,,,0.000495999999, 0.405687497
,,,0.000496999999, 0.405312497
,,,0.000497999999, 0.404937497
,,,0.000498999999, 0.406843747
,,,0.000499999999, 0.406468747
,,,0.000500999999, 0.405031247
,,,0.000501999999, 0.404874997
,,,0.000502999999, 0.406499997
,,,0.000503999999, 0.407218747
,,,0.000504999999, 0.405468747
,,,0.000505999999, 0.405624997
,,,0.000506999999, 0.406468747
,,,0.000507999999, 0.405374997
,,,0.000508999999, 0.405374997
,,,0.000509999999, 0.404874997
,,,0.000510999999, 0.406499997
,,,0.000511999999, 0.406812497
,,,0.000512999999, 0.404999997
,,,0.000513999999, 0.406437497
,,,0.000514999999, 0.409218747
,,,0.000515999999, 0.407187497
,,,0.000516999999, 0.408437497
,,,0.000517999999, 0.406812497
,,,0.000518999999, 0.405718747
,,,0.000519999999, 0.406437497
,,,0.000520999999, 0.407249997
,,,0.000521999999, 0.405718747
,,,0.000522999999, 0.405718747
,,,0.000523999999, 0.405687497
,,,0.000524999999, 0.407187497
,,,0.000525999999, 0.405781247
,,,0.000526999999, 0.405656247
,,,0.000527999999, 0.406937497
,,,0.000528999999, 0.407999997
,,,0.000529999999, 0.409124997
,,,0.000530999999, 0.407249997
,,,0.000531999999, 0.406156247
,,,0.000532999999, 0.406437497
,,,0.000533999999, 0.405781247
,,,0.000534999999, 0.407968747
,,,0.000535999999, 0.406906247
,,,0.000536999999, 0.406437497
,,,0.000537999999, 0.407187497
,,,0.000538999999, 0.408843747
,,,0.000539999999, 0.407968747
,,,0.000540999999, 0.406874997
,,,0.000541999999, 0.407999997
,,,0.000542999999, 0.408781247
,,,0.000543999999, 0.407999997
,,,0.000544999999, 0.408406247
,,,0.000545999999, 0.408718747
,,,0.000546999999, 0.406874997
,,,0.000547999999, 0.408343747
,,,0.000548999999, 0.409156247
,,,0.000549999999, 0.407281247
,,,0.000550999999, 0.407937497
,,,0.000551999999, 0.410281247
,,,0.000552999999, 0.409124997
,,,0.000553999999, 0.410312497
,,,0.000554999999, 0.407562497
,,,0.000555999999, 0.409937497
,,,0.000556999999, 0.407999997
,,,0.000557999999, 0.409124997
,,,0.000558999999, 0.409968747
,,,0.000559999999, 0.406874997
,,,0.000560999999, 0.408031247
,,,0.000561999999, 0.406062497
,,,0.000562999999, 0.407249997
,,,0.000563999999, 0.407999997
,,,0.000564999999, 0.410343747
,,,0.000565999999, 0.407593747
,,,0.000566999999, 0.410687497
,,,0.000567999999, 0.408374997
,,,0.000568999999, 0.410656247
,,,0.000569999999, 0.408687497
,,,0.000570999999, 0.406843747
,,,0.000571999999, 0.408031247
,,,0.000572999999, 0.409156247
,,,0.000573999999, 0.409531247
,,,0.000574999999, 0.410281247
,,,0.000575999999, 0.406906247
,,,0.000576999999, 0.409124997
,,,0.000577999999, 0.407593747
,,,0.000578999999, 0.408406247
,,,0.000579999999, 0.409124997
,,,0.000580999999, 0.408406247
,,,0.000581999999, 0.408781247
,,,0.000582999999, 0.411437497
,,,0.000583999999, 0.409874997
,,,0.000584999999, 0.407999997
,,,0.000585999999, 0.408343747
,,,0.000586999999, 0.409531247
,,,0.000587999999, 0.410374997
,,,0.000588999999, 0.407937497
,,,0.000589999999, 0.409937497
,,,0.000590999999, 0.408437497
,,,0.000591999999, 0.410281247
,,,0.000592999999, 0.410249997
,,,0.000593999999, 0.410249997
,,,0.000594999998, 0.411062497
,,,0.000595999998, 0.410281247
,,,0.000596999998, 0.409562497
,,,0.000597999998, 0.409187497
,,,0.000598999998, 0.411812497
,,,0.000599999998, 0.409437497
,,,0.000600999998, 0.411093747
,,,0.000601999998, 0.409906247
,,,0.000602999998, 0.409156247
,,,0.000603999998, 0.411437497
,,,0.000604999998, 0.408718747
,,,0.000605999998, 0.411062497
,,,0.000606999998, 0.410656247
,,,0.000607999998, 0.408718747
,,,0.000608999998, 0.410593747
,,,0.000609999998, 0.410718747
,,,0.000610999998, 0.412218747
,,,0.000611999998, 0.411812497
,,,0.000612999998, 0.409843747
,,,0.000613999998, 0.413374997
,,,0.000614999998, 0.411843747
,,,0.000615999998, 0.412187497
,,,0.000616999998, 0.412187497
,,,0.000617999998, 0.409156247
,,,0.000618999998, 0.411312497
,,,0.000619999998, 0.409218747
,,,0.000620999998, 0.411437497
,,,0.000621999998, 0.410312497
,,,0.000622999998, 0.412562497
,,,0.000623999998, 0.412156247
,,,0.000624999998, 0.410718747
,,,0.000625999998, 0.411374997
,,,0.000626999998, 0.411843747
,,,0.000627999998, 0.409124997
,,,0.000628999998, 0.414468747
,,,0.000629999998, 0.411812497
,,,0.000630999998, 0.411812497
,,,0.000631999998, 0.412156247
,,,0.000632999998, 0.411062497
,,,0.000633999998, 0.410656247
,,,0.000634999998, 0.412218747
,,,0.000635999998, 0.409906247
,,,0.000636999998, 0.412187497
,,,0.000637999998, 0.410656247
,,,0.000638999998, 0.410687497
,,,0.000639999998, 0.411781247
,,,0.000640999998, 0.411093747
,,,0.000641999998, 0.410249997
,,,0.000642999998, 0.411843747
,,,0.000643999998, 0.412968747
