Master-Thesis_updated/Python/FE_IV_2c23_4K/2c23_IV_Channel1Antwort_nphi_Igen124p84.csv

"Record Length",100000,"Points",           0,-0.0827656244
"Sample Interval",9.99999997e-007,s,9.99999997e-007,-0.0823749994
"Trigger Point",0,"Samples",1.99999999e-006,-0.0823828119
"Trigger Time",           0,s,2.99999999e-006,-0.0826640619
"",,,3.99999999e-006,-0.0829609369
,,,4.99999999e-006,-0.0827578119
,,,5.99999998e-006,-0.0827578119
,,,6.99999998e-006,-0.0827578119
,,,7.99999998e-006,-0.0829609369
,,,8.99999998e-006,-0.0829531244
,,,9.99999997e-006,-0.0828593744
,,,    1.1e-005,-0.0824843744
,,,    1.2e-005,-0.0829453119
,,,    1.3e-005,-0.0821953119
,,,    1.4e-005,-0.0826562494
,,,    1.5e-005,-0.0826718744
,,,    1.6e-005,-0.0832343744
,,,    1.7e-005,-0.0827578119
,,,    1.8e-005,-0.0828593744
,,,    1.9e-005,-0.0830546869
,,,1.99999999e-005,-0.0825703119
,,,2.09999999e-005,-0.0828593744
,,,2.19999999e-005,-0.0829453119
,,,2.29999999e-005,-0.0829453119
,,,2.39999999e-005,-0.0823984369
,,,2.49999999e-005,-0.0828515619
,,,2.59999999e-005,-0.0824765619
,,,2.69999999e-005,-0.0822734369
,,,2.79999999e-005,-0.0825937494
,,,2.89999999e-005,-0.0828515619
,,,2.99999999e-005,-0.0828515619
,,,3.09999999e-005,-0.0827656244
,,,3.19999999e-005,-0.0830468744
,,,3.29999999e-005,-0.0830546869
,,,3.39999999e-005,-0.0828593744
,,,3.49999999e-005,-0.0829531244
,,,3.59999999e-005,-0.0825703119
,,,3.69999999e-005,-0.0827578119
,,,3.79999999e-005,-0.0831328119
,,,3.89999999e-005,-0.0832265619
,,,3.99999999e-005,-0.0829609369
,,,4.09999999e-005,-0.0832421869
,,,4.19999999e-005,-0.0831171869
,,,4.29999999e-005,-0.0829765619
,,,4.39999999e-005,-0.0826484369
,,,4.49999999e-005,-0.0832421869
,,,4.59999999e-005,-0.0837187494
,,,4.69999999e-005,-0.0829609369
,,,4.79999999e-005,-0.0836015619
,,,4.89999999e-005,-0.0832421869
,,,4.99999999e-005,-0.0830468744
,,,5.09999999e-005,-0.0833359369
,,,5.19999999e-005,-0.0830468744
,,,5.29999999e-005,-0.0827578119
,,,5.39999999e-005,-0.0828593744
,,,5.49999999e-005,-0.0830468744
,,,5.59999999e-005,-0.0827656244
,,,5.69999999e-005,-0.0825859369
,,,5.79999999e-005,-0.0833281244
,,,5.89999999e-005,-0.0833281244
,,,5.99999998e-005,-0.0830468744
,,,6.09999998e-005,-0.0833281244
,,,6.19999998e-005,-0.0834374994
,,,6.29999998e-005,-0.0832421869
,,,6.39999998e-005,-0.0833281244
,,,6.49999998e-005,-0.0824843744
,,,6.59999998e-005,-0.0836249994
,,,6.69999998e-005,-0.0824843744
,,,6.79999998e-005,-0.0833203119
,,,6.89999998e-005,-0.0828671869
,,,6.99999998e-005,-0.0830390619
,,,7.09999998e-005,-0.0831640619
,,,7.19999998e-005,-0.0829218744
,,,7.29999998e-005,-0.0828671869
,,,7.39999998e-005,-0.0831562494
,,,7.49999998e-005,-0.0833281244
,,,7.59999998e-005,-0.0830468744
,,,7.69999998e-005,-0.0829453119
,,,7.79999998e-005,-0.0832499994
,,,7.89999998e-005,-0.0835078119
,,,7.99999998e-005,-0.0828593744
,,,8.09999998e-005,-0.0832343744
,,,8.19999998e-005,-0.0832343744
,,,8.29999998e-005,-0.0832343744
,,,8.39999998e-005,-0.0833281244
,,,8.49999998e-005,-0.0835390619
,,,8.59999998e-005,-0.0836015619
,,,8.69999998e-005,-0.0833281244
,,,8.79999998e-005,-0.0832499994
,,,8.89999998e-005,-0.0831406244
,,,8.99999998e-005,-0.0829609369
,,,9.09999998e-005,-0.0831328119
,,,9.19999998e-005,-0.0831406244
,,,9.29999998e-005,-0.0831562494
,,,9.39999998e-005,-0.0833203119
,,,9.49999998e-005,-0.0828593744
,,,9.59999998e-005,-0.0829531244
,,,9.69999998e-005,-0.0832343744
,,,9.79999998e-005,-0.0830468744
,,,9.89999998e-005,-0.0830390619
,,,9.99999997e-005,-0.0837187494
,,,    0.000101,-0.0830546869
,,,    0.000102,-0.0828671869
,,,    0.000103,-0.0833359369
,,,    0.000104,-0.0834218744
,,,    0.000105,-0.0836093744
,,,    0.000106,-0.0830624994
,,,    0.000107,-0.0833359369
,,,    0.000108,-0.0831406244
,,,    0.000109,-0.0832343744
,,,     0.00011,-0.0832421869
,,,    0.000111,-0.0831484369
,,,    0.000112,-0.0833359369
,,,    0.000113,-0.0834296869
,,,    0.000114,-0.0837109369
,,,    0.000115,-0.0835078119
,,,    0.000116,-0.0837343744
,,,    0.000117,-0.0835390619
,,,    0.000118,-0.0826484369
,,,    0.000119,-0.0831484369
,,,     0.00012,-0.0830546869
,,,    0.000121,-0.0829531244
,,,    0.000122,-0.0831562494
,,,    0.000123,-0.0831406244
,,,    0.000124,-0.0839921869
,,,    0.000125,-0.0836328119
,,,    0.000126,-0.0838046869
,,,    0.000127,-0.0833437494
,,,    0.000128,-0.0837109369
,,,    0.000129,-0.0831406244
,,,     0.00013,-0.0833359369
,,,    0.000131,-0.0834218744
,,,    0.000132,-0.0831484369
,,,    0.000133,-0.0833281244
,,,    0.000134,-0.0831562494
,,,    0.000135,-0.0830390619
,,,    0.000136,-0.0830546869
,,,    0.000137,-0.0836015619
,,,    0.000138,-0.0833437494
,,,    0.000139,-0.0832343744
,,,     0.00014,-0.0835390619
,,,    0.000141,-0.0835156244
,,,    0.000142,-0.0832265619
,,,    0.000143,-0.0834296869
,,,    0.000144,-0.0834374994
,,,    0.000145,-0.0828593744
,,,    0.000146,-0.0833281244
,,,    0.000147,-0.0835234369
,,,    0.000148,-0.0835312494
,,,    0.000149,-0.0831406244
,,,     0.00015,-0.0835156244
,,,    0.000151,-0.0830624994
,,,    0.000152,-0.0833281244
,,,    0.000153,-0.0835234369
,,,    0.000154,-0.0833281244
,,,    0.000155,-0.0833359369
,,,    0.000156,-0.0834374994
,,,    0.000157,-0.0838046869
,,,    0.000158,-0.0831171869
,,,    0.000159,-0.0831562494
,,,     0.00016,-0.0836328119
,,,    0.000161,-0.0834218744
,,,    0.000162,-0.0830390619
,,,    0.000163,-0.0831406244
,,,    0.000164,-0.0838203119
,,,    0.000165,-0.0833203119
,,,    0.000166,-0.0831562494
,,,    0.000167,-0.0834218744
,,,    0.000168,-0.0837187494
,,,    0.000169,-0.0840859369
,,,     0.00017,-0.0834453119
,,,    0.000171,-0.0834296869
,,,    0.000172,-0.0834140619
,,,    0.000173,-0.0830468744
,,,    0.000174,-0.0831406244
,,,    0.000175,-0.0833593744
,,,    0.000176,-0.0831249994
,,,    0.000177,-0.0834453119
,,,    0.000178,-0.0837890619
,,,    0.000179,-0.0831640619
,,,     0.00018,-0.0836249994
,,,    0.000181,-0.0834296869
,,,    0.000182,-0.0834140619
,,,    0.000183,-0.0840078119
,,,    0.000184,-0.0837187494
,,,    0.000185,-0.0839062494
,,,    0.000186,-0.0838906244
,,,    0.000187,-0.0831484369
,,,    0.000188,-0.0841015619
,,,    0.000189,-0.0832265619
,,,     0.00019,-0.0838124994
,,,    0.000191,-0.0833359369
,,,    0.000192,-0.0836015619
,,,    0.000193,-0.0841015619
,,,    0.000194,-0.0830468744
,,,    0.000195,-0.0839999994
,,,    0.000196,-0.0835312494
,,,    0.000197,-0.0834296869
,,,    0.000198,-0.0834218744
,,,0.000198999999,-0.0837187494
,,,0.000199999999,-0.0839062494
,,,0.000200999999,-0.0839140619
,,,0.000201999999,-0.0839999994
,,,0.000202999999,-0.0836249994
,,,0.000203999999,-0.0838984369
,,,0.000204999999,-0.0840937494
,,,0.000205999999,-0.0833203119
,,,0.000206999999,-0.0838359369
,,,0.000207999999,-0.0839765619
,,,0.000208999999,-0.0840078119
,,,0.000209999999,-0.0839140619
,,,0.000210999999,-0.0837109369
,,,0.000211999999,-0.0832343744
,,,0.000212999999,-0.0841015619
,,,0.000213999999,-0.0839062494
,,,0.000214999999,-0.0841015619
,,,0.000215999999,-0.0842734369
,,,0.000216999999,-0.0833281244
,,,0.000217999999,-0.0834453119
,,,0.000218999999,-0.0834140619
,,,0.000219999999,-0.0838203119
,,,0.000220999999,-0.0839999994
,,,0.000221999999,-0.0837031244
,,,0.000222999999,-0.0836328119
,,,0.000223999999,-0.0838046869
,,,0.000224999999,-0.0838046869
,,,0.000225999999,-0.0839921869
,,,0.000226999999,-0.0839140619
,,,0.000227999999,-0.0838046869
,,,0.000228999999,-0.0836093744
,,,0.000229999999,-0.0838203119
,,,0.000230999999,-0.0835312494
,,,0.000231999999,-0.0832421869
,,,0.000232999999,-0.0837968744
,,,0.000233999999,-0.0838124994
,,,0.000234999999,-0.0840859369
,,,0.000235999999,-0.0838046869
,,,0.000236999999,-0.0842968744
,,,0.000237999999,-0.0841874994
,,,0.000238999999,-0.0839999994
,,,0.000239999999,-0.0836249994
,,,0.000240999999,-0.0837109369
,,,0.000241999999,-0.0839921869
,,,0.000242999999,-0.0839062494
,,,0.000243999999,-0.0837968744
,,,0.000244999999,-0.0840156244
,,,0.000245999999,-0.0841796869
,,,0.000246999999,-0.0838203119
,,,0.000247999999,-0.0837109369
,,,0.000248999999,-0.0838124994
,,,0.000249999999,-0.0837265619
,,,0.000250999999,-0.0840859369
,,,0.000251999999,-0.0839062494
,,,0.000252999999,-0.0837265619
,,,0.000253999999,-0.0843593744
,,,0.000254999999,-0.0839140619
,,,0.000255999999,-0.0839062494
,,,0.000256999999,-0.0841874994
,,,0.000257999999,-0.0839999994
,,,0.000258999999,-0.0844843744
,,,0.000259999999,-0.0840937494
,,,0.000260999999,-0.0841796869
,,,0.000261999999,-0.0836249994
,,,0.000262999999,-0.0838046869
,,,0.000263999999,-0.0839999994
,,,0.000264999999,-0.0843749994
,,,0.000265999999,-0.0835234369
,,,0.000266999999,-0.0840156244
,,,0.000267999999,-0.0842812494
,,,0.000268999999,-0.0837109369
,,,0.000269999999,-0.0840156244
,,,0.000270999999,-0.0843046869
,,,0.000271999999,-0.0838906244
,,,0.000272999999,-0.0838984369
,,,0.000273999999,-0.0840078119
,,,0.000274999999,-0.0840937494
,,,0.000275999999,-0.0841015619
,,,0.000276999999,-0.0840078119
,,,0.000277999999,-0.0847578119
,,,0.000278999999,-0.0836171869
,,,0.000279999999,-0.0838984369
,,,0.000280999999,-0.0841015619
,,,0.000281999999,-0.0841874994
,,,0.000282999999,-0.0841953119
,,,0.000283999999,-0.0846640619
,,,0.000284999999,-0.0835312494
,,,0.000285999999,-0.0838984369
,,,0.000286999999,-0.0843671869
,,,0.000287999999,-0.0838124994
,,,0.000288999999,-0.0838203119
,,,0.000289999999,-0.0839062494
,,,0.000290999999,-0.0843906244
,,,0.000291999999,-0.0839843744
,,,0.000292999999,-0.0840859369
,,,0.000293999999,-0.0845781244
,,,0.000294999999,-0.0840859369
,,,0.000295999999,-0.0839999994
,,,0.000296999999,-0.0843828119
,,,0.000297999999,-0.0841874994
,,,0.000298999999,-0.0841874994
,,,0.000299999999,-0.0843828119
,,,0.000300999999,-0.0848515619
,,,0.000301999999,-0.0842968744
,,,0.000302999999,-0.0843749994
,,,0.000303999999,-0.0846640619
,,,0.000304999999,-0.0842968744
,,,0.000305999999,-0.0846640619
,,,0.000306999999,-0.0838046869
,,,0.000307999999,-0.0841015619
,,,0.000308999999,-0.0843749994
,,,0.000309999999,-0.0844687494
,,,0.000310999999,-0.0841953119
,,,0.000311999999,-0.0841874994
,,,0.000312999999,-0.0846640619
,,,0.000313999999,-0.0841953119
,,,0.000314999999,-0.0839062494
,,,0.000315999999,-0.0841953119
,,,0.000316999999,-0.0839062494
,,,0.000317999999,-0.0839843744
,,,0.000318999999,-0.0845781244
,,,0.000319999999,-0.0839140619
,,,0.000320999999,-0.0845624994
,,,0.000321999999,-0.0848671869
,,,0.000322999999,-0.0837109369
,,,0.000323999999,-0.0839999994
,,,0.000324999999,-0.0847578119
,,,0.000325999999,-0.0847812494
,,,0.000326999999,-0.0841874994
,,,0.000327999999,-0.0842890619
,,,0.000328999999,-0.0849453119
,,,0.000329999999,-0.0848515619
,,,0.000330999999,-0.0844843744
,,,0.000331999999,-0.0844843744
,,,0.000332999999,-0.0842812494
,,,0.000333999999,-0.0838906244
,,,0.000334999999,-0.0850468744
,,,0.000335999999,-0.0848593744
,,,0.000336999999,-0.0848593744
,,,0.000337999999,-0.0847734369
,,,0.000338999999,-0.0846484369
,,,0.000339999999,-0.0849609369
,,,0.000340999999,-0.0841953119
,,,0.000341999999,-0.0845546869
,,,0.000342999999,-0.0836328119
,,,0.000343999999,-0.0845703119
,,,0.000344999999,-0.0844765619
,,,0.000345999999,-0.0846796869
,,,0.000346999999,-0.0841874994
,,,0.000347999999,-0.0838984369
,,,0.000348999999,-0.0837968744
,,,0.000349999999,-0.0839999994
,,,0.000350999999,-0.0850546869
,,,0.000351999999,-0.0841953119
,,,0.000352999999,-0.0845781244
,,,0.000353999999,-0.0847578119
,,,0.000354999999,-0.0839062494
,,,0.000355999999,-0.0843906244
,,,0.000356999999,-0.0843671869
,,,0.000357999999,-0.0843749994
,,,0.000358999999,-0.0845703119
,,,0.000359999999,-0.0843828119
,,,0.000360999999,-0.0841953119
,,,0.000361999999,-0.0841953119
,,,0.000362999999,-0.0845703119
,,,0.000363999999,-0.0841953119
,,,0.000364999999,-0.0845624994
,,,0.000365999999,-0.0846718744
,,,0.000366999999,-0.0852265619
,,,0.000367999999,-0.0849687494
,,,0.000368999999,-0.0848515619
,,,0.000369999999,-0.0850546869
,,,0.000370999999,-0.0840937494
,,,0.000371999999,-0.0843749994
,,,0.000372999999,-0.0842734369
,,,0.000373999999,-0.0843828119
,,,0.000374999999,-0.0842890619
,,,0.000375999999,-0.0848593744
,,,0.000376999999,-0.0846640619
,,,0.000377999999,-0.0844765619
,,,0.000378999999,-0.0844765619
,,,0.000379999999,-0.0839999994
,,,0.000380999999,-0.0844765619
,,,0.000381999999,-0.0850390619
,,,0.000382999999,-0.0850546869
,,,0.000383999999,-0.0840859369
,,,0.000384999999,-0.0849531244
,,,0.000385999999,-0.0845781244
,,,0.000386999999,-0.0845703119
,,,0.000387999999,-0.0846562494
,,,0.000388999999,-0.0847656244
,,,0.000389999999,-0.0846562494
,,,0.000390999999,-0.0847656244
,,,0.000391999999,-0.0843671869
,,,0.000392999999,-0.0848828119
,,,0.000393999999,-0.0845703119
,,,0.000394999999,-0.0849453119
,,,0.000395999999,-0.0848593744
,,,0.000396999999,-0.0847578119
,,,0.000397999999,-0.0847578119
,,,0.000398999999,-0.0848671869
,,,0.000399999999,-0.0846562494
,,,0.000400999999,-0.0845703119
,,,0.000401999999,-0.0846484369
,,,0.000402999999,-0.0843906244
,,,0.000403999999,-0.0846718744
,,,0.000404999999,-0.0848515619
,,,0.000405999999,-0.0852421869
,,,0.000406999999,-0.0840781244
,,,0.000407999999,-0.0850468744
,,,0.000408999999,-0.0849609369
,,,0.000409999999,-0.0844687494
,,,0.000410999999,-0.0848437494
,,,0.000411999999,-0.0848671869
,,,0.000412999999,-0.0842812494
,,,0.000413999999,-0.0853281244
,,,0.000414999999,-0.0853437494
,,,0.000415999999,-0.0846562494
,,,0.000416999999,-0.0845624994
,,,0.000417999999,-0.0847578119
,,,0.000418999999,-0.0846874994
,,,0.000419999999,-0.0848437494
,,,0.000420999999,-0.0846796869
,,,0.000421999999,-0.0849531244
,,,0.000422999999,-0.0843749994
,,,0.000423999999,-0.0849531244
,,,0.000424999999,-0.0848749994
,,,0.000425999999,-0.0854296869
,,,0.000426999999,-0.0849453119
,,,0.000427999999,-0.0842890619
,,,0.000428999999,-0.0852343744
,,,0.000429999999,-0.0845859369
,,,0.000430999999,-0.0844687494
,,,0.000431999999,-0.0845781244
,,,0.000432999999,-0.0849531244
,,,0.000433999999,-0.0847656244
,,,0.000434999999,-0.0855156244
,,,0.000435999999,-0.0850468744
,,,0.000436999999,-0.0845859369
,,,0.000437999999,-0.0853281244
,,,0.000438999999,-0.0850546869
,,,0.000439999999,-0.0849296869
,,,0.000440999999,-0.0848749994
,,,0.000441999999,-0.0856171869
,,,0.000442999999,-0.0850390619
,,,0.000443999999,-0.0846718744
,,,0.000444999999,-0.0848515619
,,,0.000445999999,-0.0849687494
,,,0.000446999999,-0.0851328119
,,,0.000447999999,-0.0846640619
,,,0.000448999999,-0.0850390619
,,,0.000449999999,-0.0849687494
,,,0.000450999999,-0.0853281244
,,,0.000451999999,-0.0850546869
,,,0.000452999999,-0.0844765619
,,,0.000453999999,-0.0856249994
,,,0.000454999999,-0.0846484369
,,,0.000455999999,-0.0851562494
,,,0.000456999999,-0.0844765619
,,,0.000457999999,-0.0847499994
,,,0.000458999999,-0.0849531244
,,,0.000459999999,-0.0849531244
,,,0.000460999999,-0.0853281244
,,,0.000461999999,-0.0857187494
,,,0.000462999999,-0.0846562494
,,,0.000463999999,-0.0849609369
,,,0.000464999999,-0.0854218744
,,,0.000465999999,-0.0852421869
,,,0.000466999999,-0.0853281244
,,,0.000467999999,-0.0847734369
,,,0.000468999999,-0.0852265619
,,,0.000469999999,-0.0847656244
,,,0.000470999999,-0.0850546869
,,,0.000471999999,-0.0847578119
,,,0.000472999999,-0.0853359369
,,,0.000473999999,-0.0854218744
,,,0.000474999999,-0.0846796869
,,,0.000475999999,-0.0851249994
,,,0.000476999999,-0.0851562494
,,,0.000477999999,-0.0850546869
,,,0.000478999999,-0.0853281244
,,,0.000479999999,-0.0853281244
,,,0.000480999999,-0.0852265619
,,,0.000481999999,-0.0851562494
,,,0.000482999999,-0.0849453119
,,,0.000483999999,-0.0854218744
,,,0.000484999999,-0.0850546869
,,,0.000485999999,-0.0851328119
,,,0.000486999999,-0.0851484369
,,,0.000487999999,-0.0852187494
,,,0.000488999999,-0.0843906244
,,,0.000489999999,-0.0850468744
,,,0.000490999999,-0.0848515619
,,,0.000491999999,-0.0854296869
,,,0.000492999999,-0.0850546869
,,,0.000493999999,-0.0851249994
,,,0.000494999999,-0.0850624994
,,,0.000495999999,-0.0850312494
,,,0.000496999999,-0.0854374994
,,,0.000497999999,-0.0849609369
,,,0.000498999999,-0.0850390619
,,,0.000499999999,-0.0849609369
,,,0.000500999999,-0.0850390619
,,,0.000501999999,-0.0856093744
,,,0.000502999999,-0.0853281244
,,,0.000503999999,-0.0851484369
,,,0.000504999999,-0.0848593744
,,,0.000505999999,-0.0852499994
,,,0.000506999999,-0.0858046869
,,,0.000507999999,-0.0855390619
,,,0.000508999999,-0.0853281244
,,,0.000509999999,-0.0856328119
,,,0.000510999999,-0.0853359369
,,,0.000511999999,-0.0851328119
,,,0.000512999999,-0.0855937494
,,,0.000513999999,-0.0854453119
,,,0.000514999999,-0.0846718744
,,,0.000515999999,-0.0846640619
,,,0.000516999999,-0.0853203119
,,,0.000517999999,-0.0855312494
,,,0.000518999999,-0.0850390619
,,,0.000519999999,-0.0857187494
,,,0.000520999999,-0.0849531244
,,,0.000521999999,-0.0849609369
,,,0.000522999999,-0.0854218744
,,,0.000523999999,-0.0859999994
,,,0.000524999999,-0.0850546869
,,,0.000525999999,-0.0856093744
,,,0.000526999999,-0.0854296869
,,,0.000527999999,-0.0855234369
,,,0.000528999999,-0.0853281244
,,,0.000529999999,-0.0852343744
,,,0.000530999999,-0.0855312494
,,,0.000531999999,-0.0852265619
,,,0.000532999999,-0.0853437494
,,,0.000533999999,-0.0849687494
,,,0.000534999999,-0.0852187494
,,,0.000535999999,-0.0853437494
,,,0.000536999999,-0.0854218744
,,,0.000537999999,-0.0850390619
,,,0.000538999999,-0.0857265619
,,,0.000539999999,-0.0852421869
,,,0.000540999999,-0.0851484369
,,,0.000541999999,-0.0855234369
,,,0.000542999999,-0.0849374994
,,,0.000543999999,-0.0854218744
,,,0.000544999999,-0.0853437494
,,,0.000545999999,-0.0855390619
,,,0.000546999999,-0.0849531244
,,,0.000547999999,-0.0856249994
,,,0.000548999999,-0.0852343744
,,,0.000549999999,-0.0859140619
,,,0.000550999999,-0.0857187494
,,,0.000551999999,-0.0850390619
,,,0.000552999999,-0.0859921869
,,,0.000553999999,-0.0853437494
,,,0.000554999999,-0.0847578119
,,,0.000555999999,-0.0850624994
,,,0.000556999999,-0.0858984369
,,,0.000557999999,-0.0854374994
,,,0.000558999999,-0.0852343744
,,,0.000559999999,-0.0859062494
,,,0.000560999999,-0.0856171869
,,,0.000561999999,-0.0854218744
,,,0.000562999999,-0.0851484369
,,,0.000563999999,-0.0859062494
,,,0.000564999999,-0.0859921869
,,,0.000565999999,-0.0855234369
,,,0.000566999999,-0.0859999994
,,,0.000567999999,-0.0853281244
,,,0.000568999999,-0.0861874994
,,,0.000569999999,-0.0858203119
,,,0.000570999999,-0.0854218744
,,,0.000571999999,-0.0862734369
,,,0.000572999999,-0.0855312494
,,,0.000573999999,-0.0858046869
,,,0.000574999999,-0.0850468744
,,,0.000575999999,-0.0855234369
,,,0.000576999999,-0.0857187494
,,,0.000577999999,-0.0858906244
,,,0.000578999999,-0.0849609369
,,,0.000579999999,-0.0852265619
,,,0.000580999999,-0.0854374994
,,,0.000581999999,-0.0857187494
,,,0.000582999999,-0.0859062494
,,,0.000583999999,-0.0858984369
,,,0.000584999999,-0.0857109369
,,,0.000585999999,-0.0859999994
,,,0.000586999999,-0.0860859369
,,,0.000587999999,-0.0858124994
,,,0.000588999999,-0.0861953119
,,,0.000589999999,-0.0857109369
,,,0.000590999999,-0.0857109369
,,,0.000591999999,-0.0854218744
,,,0.000592999999,-0.0860078119
,,,0.000593999999,-0.0851406244
,,,0.000594999998,-0.0856249994
,,,0.000595999998,-0.0856093744
,,,0.000596999998,-0.0855312494
,,,0.000597999998,-0.0857968744
,,,0.000598999998,-0.0847578119
,,,0.000599999998,-0.0856171869
,,,0.000600999998,-0.0857109369
,,,0.000601999998,-0.0857031244
,,,0.000602999998,-0.0858124994
,,,0.000603999998,-0.0851484369
,,,0.000604999998,-0.0855078119
,,,0.000605999998,-0.0859062494
,,,0.000606999998,-0.0860859369
,,,0.000607999998,-0.0855312494
,,,0.000608999998,-0.0858203119
,,,0.000609999998,-0.0861015619
,,,0.000610999998,-0.0858828119
,,,0.000611999998,-0.0857265619
,,,0.000612999998,-0.0858906244
,,,0.000613999998,-0.0859140619
,,,0.000614999998,-0.0856171869
,,,0.000615999998,-0.0859999994
,,,0.000616999998,-0.0856093744
,,,0.000617999998,-0.0856249994
,,,0.000618999998,-0.0860078119
,,,0.000619999998,-0.0858984369
,,,0.000620999998,-0.0858203119
,,,0.000621999998,-0.0860078119
,,,0.000622999998,-0.0859921869
,,,0.000623999998,-0.0857109369
