Master-Thesis_updated/Python/FE_IV_nphi_generator.csv

"Record Length",100000,"Points",-2.99999999e-005, 0.375999997
"Sample Interval",9.99999997e-007,s,-2.89999999e-005, 0.367999997
"Trigger Point",30,"Samples",-2.79999999e-005, 0.375999997
"Trigger Time",5.42384594e-007,s,-2.69999999e-005, 0.367999997
"",,,-2.59999999e-005, 0.367999997
,,,-2.49999999e-005, 0.367999997
,,,-2.39999999e-005, 0.367999997
,,,-2.29999999e-005, 0.351999997
,,,-2.19999999e-005, 0.359999997
,,,-2.09999999e-005, 0.367999997
,,,-1.99999999e-005, 0.367999997
,,,   -1.9e-005, 0.367999997
,,,   -1.8e-005, 0.375999997
,,,   -1.7e-005, 0.367999997
,,,   -1.6e-005, 0.375999997
,,,   -1.5e-005, 0.367999997
,,,   -1.4e-005, 0.375999997
,,,   -1.3e-005, 0.367999997
,,,   -1.2e-005, 0.375999997
,,,   -1.1e-005, 0.367999997
,,,-9.99999997e-006, 0.367999997
,,,-8.99999998e-006, 0.367999997
,,,-7.99999998e-006, 0.367999997
,,,-6.99999998e-006, 0.367999997
,,,-5.99999998e-006, 0.367999997
,,,-4.99999999e-006, 0.375999997
,,,-3.99999999e-006, 0.383999997
,,,-2.99999999e-006, 0.367999997
,,,-1.99999999e-006, 0.375999997
,,,-9.99999997e-007, 0.375999997
,,,           0, 0.375999997
,,,9.99999997e-007, 0.367999997
,,,1.99999999e-006, 0.375999997
,,,2.99999999e-006, 0.367999997
,,,3.99999999e-006, 0.383999997
,,,4.99999999e-006, 0.367999997
,,,5.99999998e-006, 0.367999997
,,,6.99999998e-006, 0.367999997
,,,7.99999998e-006, 0.375999997
,,,8.99999998e-006, 0.383999997
,,,9.99999997e-006, 0.367999997
,,,    1.1e-005, 0.375999997
,,,    1.2e-005, 0.375999997
,,,    1.3e-005, 0.383999997
,,,    1.4e-005, 0.375999997
,,,    1.5e-005, 0.383999997
,,,    1.6e-005, 0.375999997
,,,    1.7e-005, 0.367999997
,,,    1.8e-005, 0.375999997
,,,    1.9e-005, 0.367999997
,,,1.99999999e-005, 0.375999997
,,,2.09999999e-005, 0.367999997
,,,2.19999999e-005, 0.367999997
,,,2.29999999e-005, 0.359999997
,,,2.39999999e-005, 0.375999997
,,,2.49999999e-005, 0.367999997
,,,2.59999999e-005, 0.367999997
,,,2.69999999e-005, 0.367999997
,,,2.79999999e-005, 0.375999997
,,,2.89999999e-005, 0.367999997
,,,2.99999999e-005, 0.375999997
,,,3.09999999e-005, 0.375999997
,,,3.19999999e-005, 0.375999997
,,,3.29999999e-005, 0.367999997
,,,3.39999999e-005, 0.375999997
,,,3.49999999e-005, 0.367999997
,,,3.59999999e-005, 0.375999997
,,,3.69999999e-005, 0.367999997
,,,3.79999999e-005, 0.367999997
,,,3.89999999e-005, 0.375999997
,,,3.99999999e-005, 0.375999997
,,,4.09999999e-005, 0.383999997
,,,4.19999999e-005, 0.375999997
,,,4.29999999e-005, 0.375999997
,,,4.39999999e-005, 0.375999997
,,,4.49999999e-005, 0.383999997
,,,4.59999999e-005, 0.367999997
,,,4.69999999e-005, 0.367999997
,,,4.79999999e-005, 0.375999997
,,,4.89999999e-005, 0.367999997
,,,4.99999999e-005, 0.367999997
,,,5.09999999e-005, 0.375999997
,,,5.19999999e-005, 0.367999997
,,,5.29999999e-005, 0.383999997
,,,5.39999999e-005, 0.383999997
,,,5.49999999e-005, 0.367999997
,,,5.59999999e-005, 0.383999997
,,,5.69999999e-005, 0.375999997
,,,5.79999999e-005, 0.367999997
,,,5.89999999e-005, 0.367999997
,,,5.99999998e-005, 0.375999997
,,,6.09999998e-005, 0.383999997
,,,6.19999998e-005, 0.367999997
,,,6.29999998e-005, 0.375999997
,,,6.39999998e-005, 0.383999997
,,,6.49999998e-005, 0.375999997
,,,6.59999998e-005, 0.375999997
,,,6.69999998e-005, 0.375999997
,,,6.79999998e-005, 0.375999997
,,,6.89999998e-005, 0.367999997
,,,6.99999998e-005, 0.375999997
,,,7.09999998e-005, 0.383999997
,,,7.19999998e-005, 0.375999997
,,,7.29999998e-005, 0.383999997
,,,7.39999998e-005, 0.383999997
,,,7.49999998e-005, 0.383999997
,,,7.59999998e-005, 0.375999997
,,,7.69999998e-005, 0.375999997
,,,7.79999998e-005, 0.375999997
,,,7.89999998e-005, 0.375999997
,,,7.99999998e-005, 0.383999997
,,,8.09999998e-005, 0.375999997
,,,8.19999998e-005, 0.375999997
,,,8.29999998e-005, 0.383999997
,,,8.39999998e-005, 0.375999997
,,,8.49999998e-005, 0.375999997
,,,8.59999998e-005, 0.375999997
,,,8.69999998e-005, 0.383999997
,,,8.79999998e-005, 0.375999997
,,,8.89999998e-005, 0.375999997
,,,8.99999998e-005, 0.375999997
,,,9.09999998e-005, 0.375999997
,,,9.19999998e-005, 0.375999997
,,,9.29999998e-005, 0.383999997
,,,9.39999998e-005, 0.375999997
,,,9.49999998e-005, 0.375999997
,,,9.59999998e-005, 0.375999997
,,,9.69999998e-005, 0.375999997
,,,9.79999998e-005, 0.391999997
,,,9.89999998e-005, 0.367999997
,,,9.99999997e-005, 0.383999997
,,,    0.000101, 0.383999997
,,,    0.000102, 0.375999997
,,,    0.000103, 0.375999997
,,,    0.000104, 0.375999997
,,,    0.000105, 0.367999997
,,,    0.000106, 0.383999997
,,,    0.000107, 0.375999997
,,,    0.000108, 0.375999997
,,,    0.000109, 0.383999997
,,,     0.00011, 0.375999997
,,,    0.000111, 0.391999997
,,,    0.000112, 0.375999997
,,,    0.000113, 0.383999997
,,,    0.000114, 0.375999997
,,,    0.000115, 0.383999997
,,,    0.000116, 0.383999997
,,,    0.000117, 0.375999997
,,,    0.000118, 0.367999997
,,,    0.000119, 0.383999997
,,,     0.00012, 0.383999997
,,,    0.000121, 0.375999997
,,,    0.000122, 0.383999997
,,,    0.000123, 0.375999997
,,,    0.000124, 0.375999997
,,,    0.000125, 0.375999997
,,,    0.000126, 0.375999997
,,,    0.000127, 0.367999997
,,,    0.000128, 0.383999997
,,,    0.000129, 0.375999997
,,,     0.00013, 0.375999997
,,,    0.000131, 0.383999997
,,,    0.000132, 0.383999997
,,,    0.000133, 0.367999997
,,,    0.000134, 0.383999997
,,,    0.000135, 0.375999997
,,,    0.000136, 0.383999997
,,,    0.000137, 0.383999997
,,,    0.000138, 0.383999997
,,,    0.000139, 0.375999997
,,,     0.00014, 0.383999997
,,,    0.000141, 0.383999997
,,,    0.000142, 0.383999997
,,,    0.000143, 0.383999997
,,,    0.000144, 0.383999997
,,,    0.000145, 0.391999997
,,,    0.000146, 0.375999997
,,,    0.000147, 0.375999997
,,,    0.000148, 0.383999997
,,,    0.000149, 0.383999997
,,,     0.00015, 0.383999997
,,,    0.000151, 0.383999997
,,,    0.000152, 0.383999997
,,,    0.000153, 0.375999997
,,,    0.000154, 0.383999997
,,,    0.000155, 0.367999997
,,,    0.000156, 0.375999997
,,,    0.000157, 0.375999997
,,,    0.000158, 0.375999997
,,,    0.000159, 0.383999997
,,,     0.00016, 0.383999997
,,,    0.000161, 0.375999997
,,,    0.000162, 0.375999997
,,,    0.000163, 0.383999997
,,,    0.000164, 0.383999997
,,,    0.000165, 0.383999997
,,,    0.000166, 0.367999997
,,,    0.000167, 0.383999997
,,,    0.000168, 0.383999997
,,,    0.000169, 0.383999997
,,,     0.00017, 0.383999997
,,,    0.000171, 0.383999997
,,,    0.000172, 0.375999997
,,,    0.000173, 0.383999997
,,,    0.000174, 0.383999997
,,,    0.000175, 0.375999997
,,,    0.000176, 0.383999997
,,,    0.000177, 0.375999997
,,,    0.000178, 0.383999997
,,,    0.000179, 0.375999997
,,,     0.00018, 0.375999997
,,,    0.000181, 0.375999997
,,,    0.000182, 0.383999997
,,,    0.000183, 0.375999997
,,,    0.000184, 0.375999997
,,,    0.000185, 0.375999997
,,,    0.000186, 0.383999997
,,,    0.000187, 0.383999997
,,,    0.000188, 0.383999997
,,,    0.000189, 0.383999997
,,,     0.00019, 0.375999997
,,,    0.000191, 0.375999997
,,,    0.000192, 0.375999997
,,,    0.000193, 0.383999997
,,,    0.000194, 0.383999997
,,,    0.000195, 0.375999997
,,,    0.000196, 0.383999997
,,,    0.000197, 0.375999997
,,,    0.000198, 0.383999997
,,,0.000198999999, 0.383999997
,,,0.000199999999, 0.383999997
,,,0.000200999999, 0.383999997
,,,0.000201999999, 0.375999997
,,,0.000202999999, 0.375999997
,,,0.000203999999, 0.367999997
,,,0.000204999999, 0.383999997
,,,0.000205999999, 0.383999997
,,,0.000206999999, 0.391999997
,,,0.000207999999, 0.375999997
,,,0.000208999999, 0.383999997
,,,0.000209999999, 0.375999997
,,,0.000210999999, 0.375999997
,,,0.000211999999, 0.383999997
,,,0.000212999999, 0.383999997
,,,0.000213999999, 0.375999997
,,,0.000214999999, 0.383999997
,,,0.000215999999, 0.399999997
,,,0.000216999999, 0.383999997
,,,0.000217999999, 0.383999997
,,,0.000218999999, 0.367999997
,,,0.000219999999, 0.391999997
,,,0.000220999999, 0.383999997
,,,0.000221999999, 0.383999997
,,,0.000222999999, 0.375999997
,,,0.000223999999, 0.383999997
,,,0.000224999999, 0.375999997
,,,0.000225999999, 0.383999997
,,,0.000226999999, 0.383999997
,,,0.000227999999, 0.391999997
,,,0.000228999999, 0.383999997
,,,0.000229999999, 0.383999997
,,,0.000230999999, 0.383999997
,,,0.000231999999, 0.383999997
,,,0.000232999999, 0.375999997
,,,0.000233999999, 0.383999997
,,,0.000234999999, 0.383999997
,,,0.000235999999, 0.383999997
,,,0.000236999999, 0.383999997
,,,0.000237999999, 0.375999997
,,,0.000238999999, 0.383999997
,,,0.000239999999, 0.383999997
,,,0.000240999999, 0.383999997
,,,0.000241999999, 0.383999997
,,,0.000242999999, 0.375999997
,,,0.000243999999, 0.391999997
,,,0.000244999999, 0.383999997
,,,0.000245999999, 0.383999997
,,,0.000246999999, 0.391999997
,,,0.000247999999, 0.383999997
,,,0.000248999999, 0.375999997
,,,0.000249999999, 0.375999997
,,,0.000250999999, 0.383999997
,,,0.000251999999, 0.375999997
,,,0.000252999999, 0.383999997
,,,0.000253999999, 0.383999997
,,,0.000254999999, 0.375999997
,,,0.000255999999, 0.383999997
,,,0.000256999999, 0.383999997
,,,0.000257999999, 0.383999997
,,,0.000258999999, 0.383999997
,,,0.000259999999, 0.375999997
,,,0.000260999999, 0.383999997
,,,0.000261999999, 0.383999997
,,,0.000262999999, 0.383999997
,,,0.000263999999, 0.375999997
,,,0.000264999999, 0.383999997
,,,0.000265999999, 0.383999997
,,,0.000266999999, 0.383999997
,,,0.000267999999, 0.383999997
,,,0.000268999999, 0.383999997
,,,0.000269999999, 0.391999997
,,,0.000270999999, 0.375999997
,,,0.000271999999, 0.383999997
,,,0.000272999999, 0.375999997
,,,0.000273999999, 0.375999997
,,,0.000274999999, 0.383999997
,,,0.000275999999, 0.391999997
,,,0.000276999999, 0.383999997
,,,0.000277999999, 0.383999997
,,,0.000278999999, 0.383999997
,,,0.000279999999, 0.383999997
,,,0.000280999999, 0.383999997
,,,0.000281999999, 0.375999997
,,,0.000282999999, 0.383999997
,,,0.000283999999, 0.383999997
,,,0.000284999999, 0.375999997
,,,0.000285999999, 0.383999997
,,,0.000286999999, 0.383999997
,,,0.000287999999, 0.375999997
,,,0.000288999999, 0.383999997
,,,0.000289999999, 0.375999997
,,,0.000290999999, 0.375999997
,,,0.000291999999, 0.383999997
,,,0.000292999999, 0.375999997
,,,0.000293999999, 0.383999997
,,,0.000294999999, 0.383999997
,,,0.000295999999, 0.391999997
,,,0.000296999999, 0.383999997
,,,0.000297999999, 0.383999997
,,,0.000298999999, 0.383999997
,,,0.000299999999, 0.383999997
,,,0.000300999999, 0.391999997
,,,0.000301999999, 0.383999997
,,,0.000302999999, 0.375999997
,,,0.000303999999, 0.383999997
,,,0.000304999999, 0.383999997
,,,0.000305999999, 0.383999997
,,,0.000306999999, 0.383999997
,,,0.000307999999, 0.383999997
,,,0.000308999999, 0.391999997
,,,0.000309999999, 0.383999997
,,,0.000310999999, 0.383999997
,,,0.000311999999, 0.375999997
,,,0.000312999999, 0.383999997
,,,0.000313999999, 0.383999997
,,,0.000314999999, 0.391999997
,,,0.000315999999, 0.391999997
,,,0.000316999999, 0.383999997
,,,0.000317999999, 0.383999997
,,,0.000318999999, 0.383999997
,,,0.000319999999, 0.391999997
,,,0.000320999999, 0.383999997
,,,0.000321999999, 0.383999997
,,,0.000322999999, 0.383999997
,,,0.000323999999, 0.383999997
,,,0.000324999999, 0.383999997
,,,0.000325999999, 0.383999997
,,,0.000326999999, 0.383999997
,,,0.000327999999, 0.383999997
,,,0.000328999999, 0.383999997
,,,0.000329999999, 0.383999997
,,,0.000330999999, 0.383999997
,,,0.000331999999, 0.383999997
,,,0.000332999999, 0.383999997
,,,0.000333999999, 0.383999997
,,,0.000334999999, 0.383999997
,,,0.000335999999, 0.383999997
,,,0.000336999999, 0.383999997
,,,0.000337999999, 0.391999997
,,,0.000338999999, 0.383999997
,,,0.000339999999, 0.383999997
,,,0.000340999999, 0.383999997
,,,0.000341999999, 0.383999997
,,,0.000342999999, 0.383999997
,,,0.000343999999, 0.375999997
,,,0.000344999999, 0.383999997
,,,0.000345999999, 0.383999997
,,,0.000346999999, 0.383999997
,,,0.000347999999, 0.383999997
,,,0.000348999999, 0.391999997
,,,0.000349999999, 0.391999997
,,,0.000350999999, 0.383999997
,,,0.000351999999, 0.383999997
,,,0.000352999999, 0.399999997
,,,0.000353999999, 0.383999997
,,,0.000354999999, 0.383999997
,,,0.000355999999, 0.383999997
,,,0.000356999999, 0.391999997
,,,0.000357999999, 0.383999997
,,,0.000358999999, 0.391999997
,,,0.000359999999, 0.399999997
,,,0.000360999999, 0.391999997
,,,0.000361999999, 0.383999997
,,,0.000362999999, 0.383999997
,,,0.000363999999, 0.383999997
,,,0.000364999999, 0.383999997
,,,0.000365999999, 0.391999997
,,,0.000366999999, 0.383999997
,,,0.000367999999, 0.391999997
,,,0.000368999999, 0.383999997
,,,0.000369999999, 0.391999997
,,,0.000370999999, 0.383999997
,,,0.000371999999, 0.391999997
,,,0.000372999999, 0.391999997
,,,0.000373999999, 0.391999997
,,,0.000374999999, 0.383999997
,,,0.000375999999, 0.383999997
,,,0.000376999999, 0.383999997
,,,0.000377999999, 0.391999997
,,,0.000378999999, 0.383999997
,,,0.000379999999, 0.399999997
,,,0.000380999999, 0.399999997
,,,0.000381999999, 0.383999997
,,,0.000382999999, 0.375999997
,,,0.000383999999, 0.383999997
,,,0.000384999999, 0.391999997
,,,0.000385999999, 0.391999997
,,,0.000386999999, 0.391999997
,,,0.000387999999, 0.391999997
,,,0.000388999999, 0.383999997
,,,0.000389999999, 0.383999997
,,,0.000390999999, 0.391999997
,,,0.000391999999, 0.383999997
,,,0.000392999999, 0.391999997
,,,0.000393999999, 0.375999997
,,,0.000394999999, 0.383999997
,,,0.000395999999, 0.383999997
,,,0.000396999999, 0.399999997
,,,0.000397999999, 0.383999997
,,,0.000398999999, 0.391999997
,,,0.000399999999, 0.391999997
,,,0.000400999999, 0.383999997
,,,0.000401999999, 0.383999997
,,,0.000402999999, 0.383999997
,,,0.000403999999, 0.391999997
,,,0.000404999999, 0.391999997
,,,0.000405999999, 0.383999997
,,,0.000406999999, 0.391999997
,,,0.000407999999, 0.391999997
,,,0.000408999999, 0.391999997
,,,0.000409999999, 0.383999997
,,,0.000410999999, 0.383999997
,,,0.000411999999, 0.391999997
,,,0.000412999999, 0.391999997
,,,0.000413999999, 0.391999997
,,,0.000414999999, 0.391999997
,,,0.000415999999, 0.399999997
,,,0.000416999999, 0.391999997
,,,0.000417999999, 0.391999997
,,,0.000418999999, 0.391999997
,,,0.000419999999, 0.391999997
,,,0.000420999999, 0.383999997
,,,0.000421999999, 0.391999997
,,,0.000422999999, 0.391999997
,,,0.000423999999, 0.391999997
,,,0.000424999999, 0.391999997
,,,0.000425999999, 0.383999997
,,,0.000426999999, 0.391999997
,,,0.000427999999, 0.391999997
,,,0.000428999999, 0.391999997
,,,0.000429999999, 0.383999997
,,,0.000430999999, 0.391999997
,,,0.000431999999, 0.383999997
,,,0.000432999999, 0.391999997
,,,0.000433999999, 0.383999997
,,,0.000434999999, 0.391999997
,,,0.000435999999, 0.391999997
,,,0.000436999999, 0.391999997
,,,0.000437999999, 0.383999997
,,,0.000438999999, 0.391999997
,,,0.000439999999, 0.383999997
,,,0.000440999999, 0.391999997
,,,0.000441999999, 0.391999997
,,,0.000442999999, 0.383999997
,,,0.000443999999, 0.383999997
,,,0.000444999999, 0.383999997
,,,0.000445999999, 0.391999997
,,,0.000446999999, 0.383999997
,,,0.000447999999, 0.391999997
,,,0.000448999999, 0.391999997
,,,0.000449999999, 0.399999997
,,,0.000450999999, 0.383999997
,,,0.000451999999, 0.383999997
,,,0.000452999999, 0.391999997
,,,0.000453999999, 0.391999997
,,,0.000454999999, 0.383999997
,,,0.000455999999, 0.383999997
,,,0.000456999999, 0.391999997
,,,0.000457999999, 0.383999997
,,,0.000458999999, 0.391999997
,,,0.000459999999, 0.383999997
,,,0.000460999999, 0.383999997
,,,0.000461999999, 0.383999997
,,,0.000462999999, 0.383999997
,,,0.000463999999, 0.383999997
,,,0.000464999999, 0.391999997
,,,0.000465999999, 0.391999997
,,,0.000466999999, 0.383999997
,,,0.000467999999, 0.399999997
,,,0.000468999999, 0.399999997
,,,0.000469999999, 0.383999997
,,,0.000470999999, 0.391999997
,,,0.000471999999, 0.383999997
,,,0.000472999999, 0.383999997
,,,0.000473999999, 0.391999997
,,,0.000474999999, 0.399999997
,,,0.000475999999, 0.391999997
,,,0.000476999999, 0.391999997
,,,0.000477999999, 0.391999997
,,,0.000478999999, 0.391999997
,,,0.000479999999, 0.391999997
,,,0.000480999999, 0.391999997
,,,0.000481999999, 0.383999997
,,,0.000482999999, 0.383999997
,,,0.000483999999, 0.399999997
,,,0.000484999999, 0.391999997
,,,0.000485999999, 0.383999997
,,,0.000486999999, 0.383999997
,,,0.000487999999, 0.383999997
,,,0.000488999999, 0.399999997
,,,0.000489999999, 0.383999997
,,,0.000490999999, 0.399999997
,,,0.000491999999, 0.391999997
,,,0.000492999999, 0.391999997
,,,0.000493999999, 0.399999997
,,,0.000494999999, 0.391999997
,,,0.000495999999, 0.383999997
,,,0.000496999999, 0.391999997
,,,0.000497999999, 0.391999997
,,,0.000498999999, 0.391999997
,,,0.000499999999, 0.407999997
,,,0.000500999999, 0.391999997
,,,0.000501999999, 0.383999997
,,,0.000502999999, 0.391999997
,,,0.000503999999, 0.391999997
,,,0.000504999999, 0.391999997
,,,0.000505999999, 0.391999997
,,,0.000506999999, 0.391999997
,,,0.000507999999, 0.391999997
,,,0.000508999999, 0.391999997
,,,0.000509999999, 0.391999997
,,,0.000510999999, 0.391999997
,,,0.000511999999, 0.391999997
,,,0.000512999999, 0.391999997
,,,0.000513999999, 0.391999997
,,,0.000514999999, 0.383999997
,,,0.000515999999, 0.399999997
,,,0.000516999999, 0.391999997
,,,0.000517999999, 0.391999997
,,,0.000518999999, 0.391999997
,,,0.000519999999, 0.391999997
,,,0.000520999999, 0.391999997
,,,0.000521999999, 0.391999997
,,,0.000522999999, 0.391999997
,,,0.000523999999, 0.399999997
,,,0.000524999999, 0.399999997
,,,0.000525999999, 0.391999997
,,,0.000526999999, 0.383999997
,,,0.000527999999, 0.383999997
,,,0.000528999999, 0.391999997
,,,0.000529999999, 0.399999997
,,,0.000530999999, 0.407999997
,,,0.000531999999, 0.399999997
,,,0.000532999999, 0.391999997
,,,0.000533999999, 0.383999997
,,,0.000534999999, 0.391999997
,,,0.000535999999, 0.383999997
,,,0.000536999999, 0.391999997
,,,0.000537999999, 0.391999997
,,,0.000538999999, 0.391999997
,,,0.000539999999, 0.383999997
,,,0.000540999999, 0.391999997
,,,0.000541999999, 0.399999997
,,,0.000542999999, 0.391999997
,,,0.000543999999, 0.391999997
,,,0.000544999999, 0.399999997
,,,0.000545999999, 0.391999997
,,,0.000546999999, 0.391999997
,,,0.000547999999, 0.391999997
,,,0.000548999999, 0.391999997
,,,0.000549999999, 0.399999997
,,,0.000550999999, 0.399999997
,,,0.000551999999, 0.391999997
,,,0.000552999999, 0.391999997
,,,0.000553999999, 0.391999997
,,,0.000554999999, 0.391999997
,,,0.000555999999, 0.391999997
,,,0.000556999999, 0.391999997
,,,0.000557999999, 0.383999997
,,,0.000558999999, 0.391999997
,,,0.000559999999, 0.391999997
,,,0.000560999999, 0.391999997
,,,0.000561999999, 0.391999997
,,,0.000562999999, 0.391999997
,,,0.000563999999, 0.391999997
,,,0.000564999999, 0.399999997
,,,0.000565999999, 0.383999997
,,,0.000566999999, 0.391999997
,,,0.000567999999, 0.399999997
,,,0.000568999999, 0.391999997
,,,0.000569999999, 0.391999997
,,,0.000570999999, 0.391999997
,,,0.000571999999, 0.391999997
,,,0.000572999999, 0.391999997
,,,0.000573999999, 0.391999997
,,,0.000574999999, 0.399999997
,,,0.000575999999, 0.375999997
,,,0.000576999999, 0.399999997
,,,0.000577999999, 0.391999997
,,,0.000578999999, 0.391999997
,,,0.000579999999, 0.399999997
,,,0.000580999999, 0.399999997
,,,0.000581999999, 0.399999997
,,,0.000582999999, 0.399999997
,,,0.000583999999, 0.399999997
,,,0.000584999999, 0.391999997
,,,0.000585999999, 0.391999997
,,,0.000586999999, 0.399999997
,,,0.000587999999, 0.391999997
,,,0.000588999999, 0.399999997
,,,0.000589999999, 0.399999997
,,,0.000590999999, 0.399999997
,,,0.000591999999, 0.399999997
,,,0.000592999999, 0.399999997
,,,0.000593999999, 0.399999997
,,,0.000594999998, 0.399999997
,,,0.000595999998, 0.399999997
,,,0.000596999998, 0.399999997
,,,0.000597999998, 0.391999997
,,,0.000598999998, 0.391999997
,,,0.000599999998, 0.391999997
,,,0.000600999998, 0.399999997
,,,0.000601999998, 0.399999997
,,,0.000602999998, 0.391999997
,,,0.000603999998, 0.415999997
,,,0.000604999998, 0.399999997
,,,0.000605999998, 0.391999997
,,,0.000606999998, 0.391999997
,,,0.000607999998, 0.391999997
,,,0.000608999998, 0.399999997
,,,0.000609999998, 0.391999997
,,,0.000610999998, 0.391999997
,,,0.000611999998, 0.391999997
,,,0.000612999998, 0.391999997
